<svg width="38" height="38" xmlns="http://www.w3.org/2000/svg">

 <g>
  <title>background</title>
  <rect fill="none" id="canvas_background" height="402" width="582" y="-1" x="-1"/>
 </g>
 <g>
  <title>Layer 1</title>
  <g id="svg_1">
   <g id="svg_2">
    <polyline id="svg_3" points="23,33 2.5,33 2.5,23 4.5,23 4.5,4 24.6,4 28.5,8.3     28.5,20.5   " stroke-miterlimit="10" stroke="#FFFFFF" fill="none"/>
    <line id="svg_4" y2="11" x2="24" y1="11" x1="9" stroke-miterlimit="10" stroke="#FFFFFF" fill="none"/>
    <line id="svg_5" y2="15" x2="24" y1="15" x1="9" stroke-miterlimit="10" stroke="#FFFFFF" fill="none"/>
    <line id="svg_6" y2="19" x2="24" y1="19" x1="9" stroke-miterlimit="10" stroke="#FFFFFF" fill="none"/>
    <polyline id="svg_7" points="6.5,22.5 6.5,28 21,28   " stroke-miterlimit="10" stroke="#FFFFFF" fill="none"/>
   </g>
   <circle id="svg_8" r="7.6" cy="27.8" cx="28.1" stroke-miterlimit="10" stroke="#FFFFFF" fill="none"/>
   <g transform="rotate(-45 28.389404296875004,28.08004951477051) " id="svg_9">
    <line id="svg_10" y2="31.580049" x2="28.389405" y1="24.580049" x1="28.389405" stroke-miterlimit="10" stroke="#FFFFFF" fill="none"/>
    <line id="svg_11" y2="28.080049" x2="31.889405" y1="28.080049" x1="24.889405" stroke-miterlimit="10" stroke="#FFFFFF" fill="none"/>
   </g>
   <line id="svg_12" y2="23" x2="6" y1="23" x1="4" stroke-miterlimit="10" stroke="#FFFFFF" fill="none"/>
  </g>
 </g>
</svg>