<?xml version="1.0" encoding="utf-8"?>
<!-- Generator: Adobe Illustrator 22.0.0, SVG Export Plug-In . SVG Version: 6.00 Build 0)  -->
<svg version="1.1" id="Layer_1" xmlns="http://www.w3.org/2000/svg" xmlns:xlink="http://www.w3.org/1999/xlink" x="0px" y="0px"
	 viewBox="0 0 24.9 22.7" style="enable-background:new 0 0 24.9 22.7;" xml:space="preserve">
<style type="text/css">
	.st0{fill:none;stroke:#1D89E4;stroke-width:2;stroke-linecap:round;stroke-linejoin:round;stroke-miterlimit:10;}
</style>
<g>
	<polyline class="st0" points="1.1,15.8 3.1,11.8 7.1,18.8 10.1,8.8 15.1,21.8 19.1,1.8 23.1,11.8 	"/>
</g>
</svg>
