<?xml version="1.0" encoding="utf-8"?>
<!-- Generator: Adobe Illustrator 17.1.0, SVG Export Plug-In . SVG Version: 6.00 Build 0)  -->
<!DOCTYPE svg PUBLIC "-//W3C//DTD SVG 1.1//EN" "http://www.w3.org/Graphics/SVG/1.1/DTD/svg11.dtd">
<svg version="1.1" id="Layer_1" xmlns="http://www.w3.org/2000/svg" xmlns:xlink="http://www.w3.org/1999/xlink" x="0px" y="0px"
	 viewBox="0 0 38 38" enable-background="new 0 0 38 38" xml:space="preserve">
<g>
	<polyline fill="none" stroke="#000000" stroke-miterlimit="10" points="23,32.5 2.5,32.5 2.5,22.5 4.5,22.5 4.5,3.5 25,3.5 
		28.5,7.6 28.5,20 	"/>
	<line fill="none" stroke="#000000" stroke-miterlimit="10" x1="9" y1="10.5" x2="24" y2="10.5"/>
	<line fill="none" stroke="#000000" stroke-miterlimit="10" x1="9" y1="14.5" x2="24" y2="14.5"/>
	<line fill="none" stroke="#000000" stroke-miterlimit="10" x1="9" y1="18.5" x2="24" y2="18.5"/>
	<polyline fill="none" stroke="#000000" stroke-miterlimit="10" points="6.5,22 6.5,27.5 21,27.5 	"/>
</g>
<polyline fill="none" stroke="#000000" stroke-miterlimit="10" points="4,22.5 6,22.5 6,22.5 6,22.5 "/>
<g>
	<polyline fill="none" stroke="#000000" stroke-miterlimit="10" points="28.5,23 28.5,28 31.2,29.5 	"/>
	<g>
		<polygon stroke="#000000" stroke-miterlimit="10" points="21.5,20.9 24,23 21.5,23.8 		"/>
		<path fill="none" stroke="#000000" stroke-miterlimit="10" d="M22.6,22.4c1.4-1.8,3.5-2.9,6-2.9c4.2,0,7.6,3.4,7.6,7.6
			s-3.4,7.6-7.6,7.6c-4.2,0-7.6-3.4-7.6-7.6c0-0.4,0-0.9,0.1-1.3"/>
	</g>
</g>
</svg>
